{
  "swagger": "2.0",
  "info": {
    "description": "Chapter 5 Challenge",
    "version": "1.0.0",
    "title": "Users API CRUD",
    "email": "annisafemiya@gmail.com",
  },
  "host": "localhost:3000",
  "basePath": "/",
  "schemes": [
    "http"
  ],
  "paths": {
    "/userpc/": {
      "get": {
        "description": "List Data User PC",
        "parameters": [
          {
            "name": "id",
            "in": "query",
            "type": "integer"
          },
          {
            "name": "username",
            "in": "query",
            "type": "string"
          }
        ],
        "responses": {
          "200": {
            "description": "OK",
            "schema": {
              "type": "array",
              "items": {
                "type": "object",
                "properties": {
                  "id": {
                    "example": 1
                  },
                  "username": {
                    "example": "annisafemiya"
                  }
                }
              }
            }
          },
          "404": {
            "description": "Not Found",
            "schema": {
              "type": "object",
              "properties": {
                "message": {
                  "example": "Not Found"
                }
              }
            }
          }
        }
      },
      "post": {
        "description": "Create Data User PC",
        "parameters": [
          {
            "name": "body",
            "in": "body",
            "schema": {
              "type": "object",
              "properties": {
                "username": {
                  "example": "annisafemiya"
                },
                "password": {
                  "example": "123456"
                }
              }
            }
          }
        ],
        "responses": {
          "200": {
            "description": "OK",
            "schema": {
              "type": "object",
              "properties": {
                "message": {
                  "example": "Successfully Create User"
                }
              }
            }
          },
          "404": {
            "description": "Not Found",
            "schema": {
              "type": "object",
              "properties": {
                "message": {
                  "example": "Not Found"
                }
              }
            }
          }
        }
      }
    },
    "/userpc/biodata": {
      "get": {
        "description": "List Data UserPC Biodata",
        "parameters": [
          {
            "name": "id",
            "in": "query",
            "type": "integer"
          },
          {
            "name": "name",
            "in": "query",
            "type": "string"
          },
          {
            "name": "user_pc_id",
            "in": "query",
            "type": "integer"
          },
          {
            "name": "gender",
            "in": "query",
            "type": "string"
          },
          {
            "name": "date_of_birth",
            "in": "query",
            "type": "string"
          },
          {
            "name": "age",
            "in": "query",
            "type": "integer"
          }
        ],
        "responses": {
          "200": {
            "description": "OK",
            "schema": {
              "type": "array",
              "items": {
                "type": "object",
                "properties": {
                  "id": {
                    "example": 1
                  },
                  "name": {
                    "example": "annisafemiya"
                  },
                  "user_pc_id": {
                    "example": 1
                  },
                  "gender": {
                    "example": "Female"
                  },
                  "date_of_birth": {
                    "example": "2001-07-28"
                  },
                  "age": {
                    "example": 21
                  }
                }
              }

            }
          },
          "500": {
            "description": "Internal Server Error",
            "schema": {
              "type": "object",
              "properties": {
                "message": {
                  "example": "Internal Server Error"
                }
              }
            }
          }
        }
      }
    },
    "/userpc/history": {
      "get": {
        "description": "List Data User PC History",
        "parameters": [
          {
            "name": "id",
            "in": "query",
            "type": "integer"
          },
          {
            "name": "user_pc_id",
            "in": "query",
            "type": "integer"
          },
          {
            "name": "entry_time",
            "in": "query",
            "type": "string"
          },
          {
            "name": "score",
            "in": "query",
            "type": "integer"
          }
        ],
        "responses": {
          "200": {
            "description": "OK",
            "schema": {
              "type": "array",
              "items": {
                "type": "object",
                "properties": {
                  "id": {
                    "example": 1
                  },
                  "user_pc_id": {
                    "example": 1
                  },
                  "entry_time": {
                    "example": "01:00:30"
                  },
                  "score": {
                    "example": 30
                  }
                }
              }

            }
          },
          "500": {
            "description": "Internal Server Error",
            "schema": {
              "type": "object",
              "properties": {
                "message": {
                  "example": "Internal Server Error"
                }
              }
            }
          }
        }
      }
    },
    "/userpc/{id}": {
      "get": {
        "description": "List Data User PC By Id",
        "parameters": [
          {
            "name": "id",
            "in": "path",
            "required": true,
            "type": "string"
          },
          {
            "name": "username",
            "in": "query",
            "type": "string"
          },
          {
            "name": "password",
            "in": "query",
            "type": "integer"
          }
        ],
        "responses": {
          "200": {
            "description": "OK",
            "schema": {
              "type": "object",
              "properties": {
                "id": {
                  "example": 4
                },
                "username": {
                  "example": "john doe"
                },
                "password": {
                  "example": 654321
                }
              }
            }
          },
          "500": {
            "description": "Internal Server Error",
            "schema": {
              "type": "object",
              "properties": {
                "message": {
                  "example": "Internal Server Error"
                }
              }
            }
          }
        }
      },
      "put": {
        "description": "Update Data User PC",
        "parameters": [
          {
            "name": "id",
            "in": "path",
            "required": true,
            "type": "string"
          },
          {
            "name": "body",
            "in": "body",
            "schema": {
              "type": "object",
              "properties": {
                "username": {
                  "example": "john doe"
                },
                "password": {
                  "example": "654321"
                }
              }
            }
          }
        ],
        "responses": {
          "200": {
            "description": "OK"
          },
          "500": {
            "description": "Internal Server Error"
          }
        }
      },
      "delete": {
        "description": "Delete Data User PC",
        "parameters": [
          {
            "name": "id",
            "in": "path",
            "required": true,
            "type": "string"
          }
        ],
        "responses": {
          "200": {
            "description": "OK"
          },
          "500": {
            "description": "Internal Server Error"
          }
        }
      }
    },
    "/api-docs": {
      "get": {
        "description": "",
        "parameters": [],
        "responses": {}
      }
    }
  }
}
